^C:\USERS\ENABA\ENA-BARBIR_OP_21_22\VJEZBA3\VJEZBA3\FUNKCIJE.CPP|C:\USERS\ENABA\ENA-BARBIR_OP_21_22\VJEZBA3\VJEZBA3\MAIN.CPP
C:\USERS\ENABA\ENA-BARBIR_OP_21_22\VJEZBA3\VJEZBA3\DEBUG\VC142.PDB
C:\USERS\ENABA\ENA-BARBIR_OP_21_22\VJEZBA3\VJEZBA3\DEBUG\VC142.IDB
C:\USERS\ENABA\ENA-BARBIR_OP_21_22\VJEZBA3\VJEZBA3\DEBUG\MAIN.OBJ
C:\USERS\ENABA\ENA-BARBIR_OP_21_22\VJEZBA3\VJEZBA3\DEBUG\FUNKCIJE.OBJ
^C:\USERS\ENABA\ENA-BARBIR_OP_21_22\VJEZBA3\VJEZBA3\FUNKCIJE.CPP
C:\USERS\ENABA\ENA-BARBIR_OP_21_22\VJEZBA3\VJEZBA3\DEBUG\VC142.PDB
^C:\USERS\ENABA\ENA-BARBIR_OP_21_22\VJEZBA3\VJEZBA3\MAIN.CPP
C:\USERS\ENABA\ENA-BARBIR_OP_21_22\VJEZBA3\VJEZBA3\DEBUG\VC142.PDB
