^C:\USERS\ENABA\ENA-BARBIR_OP_21_22\VJEZBA3\VJEZBA3\DEBUG\FUNKCIJE.OBJ|C:\USERS\ENABA\ENA-BARBIR_OP_21_22\VJEZBA3\VJEZBA3\DEBUG\MAIN.OBJ
C:\USERS\ENABA\ENA-BARBIR_OP_21_22\VJEZBA3\DEBUG\VJEZBA3.EXE
C:\USERS\ENABA\ENA-BARBIR_OP_21_22\VJEZBA3\VJEZBA3\DEBUG\VJEZBA3.ILK
C:\USERS\ENABA\ENA-BARBIR_OP_21_22\VJEZBA3\DEBUG\VJEZBA3.PDB
