^C:\USERS\ENABA\ENA-BARBIR_OP_21_22\VJEZBA_5\VJEZBA_5\DEBUG\FUNKCIJE.OBJ|C:\USERS\ENABA\ENA-BARBIR_OP_21_22\VJEZBA_5\VJEZBA_5\DEBUG\MAIN.OBJ
/OUT:"C:\USERS\ENABA\ENA-BARBIR_OP_21_22\VJEZBA_5\DEBUG\VJEZBA_5.EXE" /INCREMENTAL /ILK:"DEBUG\VJEZBA_5.ILK" /NOLOGO KERNEL32.LIB USER32.LIB GDI32.LIB WINSPOOL.LIB COMDLG32.LIB ADVAPI32.LIB SHELL32.LIB OLE32.LIB OLEAUT32.LIB UUID.LIB ODBC32.LIB ODBCCP32.LIB /MANIFEST /MANIFESTUAC:"level='asInvoker' uiAccess='false'" /manifest:embed /DEBUG /PDB:"C:\USERS\ENABA\ENA-BARBIR_OP_21_22\VJEZBA_5\DEBUG\VJEZBA_5.PDB" /SUBSYSTEM:CONSOLE /TLBID:1 /DYNAMICBASE /NXCOMPAT /IMPLIB:"C:\USERS\ENABA\ENA-BARBIR_OP_21_22\VJEZBA_5\DEBUG\VJEZBA_5.LIB" /MACHINE:X86 DEBUG\FUNKCIJE.OBJ
DEBUG\MAIN.OBJ
