^C:\USERS\FRANE\DESKTOP\ENA OP\VJEZBA10\VJEZBA10\VJEZBA10\DEBUG\MAIN.OBJ|C:\USERS\FRANE\DESKTOP\ENA OP\VJEZBA10\VJEZBA10\VJEZBA10\DEBUG\SOURCE.OBJ
C:\USERS\FRANE\DESKTOP\ENA OP\VJEZBA10\VJEZBA10\DEBUG\VJEZBA10.EXE
C:\USERS\FRANE\DESKTOP\ENA OP\VJEZBA10\VJEZBA10\VJEZBA10\DEBUG\VJEZBA10.ILK
C:\USERS\FRANE\DESKTOP\ENA OP\VJEZBA10\VJEZBA10\DEBUG\VJEZBA10.PDB
