^C:\USERS\FRANE\DESKTOP\ENA_VJEZBA11_OP\ENA_VJEZBA11_OP\DEBUG\FUNKCIJE.OBJ|C:\USERS\FRANE\DESKTOP\ENA_VJEZBA11_OP\ENA_VJEZBA11_OP\DEBUG\MAIN.OBJ
C:\USERS\FRANE\DESKTOP\ENA_VJEZBA11_OP\DEBUG\ENA_VJEZBA11_OP.EXE
C:\USERS\FRANE\DESKTOP\ENA_VJEZBA11_OP\ENA_VJEZBA11_OP\DEBUG\ENA_VJEZBA11_OP.ILK
C:\USERS\FRANE\DESKTOP\ENA_VJEZBA11_OP\DEBUG\ENA_VJEZBA11_OP.PDB
